%YAML 1.1
%TAG !u! tag:unity3d.com,2011:
--- !u!1 &4533103641999902935
GameObject:
  m_ObjectHideFlags: 0
  m_CorrespondingSourceObject: {fileID: 0}
  m_PrefabInstance: {fileID: 0}
  m_PrefabAsset: {fileID: 0}
  serializedVersion: 6
  m_Component:
  - component: {fileID: 1400997427221277466}
  - component: {fileID: 4962958118011632097}
  m_Layer: 0
  m_Name: Shoot_Skill
  m_TagString: Untagged
  m_Icon: {fileID: 0}
  m_NavMeshLayer: 0
  m_StaticEditorFlags: 0
  m_IsActive: 1
--- !u!4 &1400997427221277466
Transform:
  m_ObjectHideFlags: 0
  m_CorrespondingSourceObject: {fileID: 0}
  m_PrefabInstance: {fileID: 0}
  m_PrefabAsset: {fileID: 0}
  m_GameObject: {fileID: 4533103641999902935}
  m_LocalRotation: {x: 0, y: 0, z: 0, w: 1}
  m_LocalPosition: {x: 0, y: 0, z: 0}
  m_LocalScale: {x: 1, y: 1, z: 1}
  m_Children:
  - {fileID: 1267914005633188487}
  m_Father: {fileID: 0}
  m_RootOrder: 0
  m_LocalEulerAnglesHint: {x: 0, y: 0, z: 0}
--- !u!114 &4962958118011632097
MonoBehaviour:
  m_ObjectHideFlags: 0
  m_CorrespondingSourceObject: {fileID: 0}
  m_PrefabInstance: {fileID: 0}
  m_PrefabAsset: {fileID: 0}
  m_GameObject: {fileID: 4533103641999902935}
  m_Enabled: 1
  m_EditorHideFlags: 0
  m_Script: {fileID: 11500000, guid: 0fa9e2d2450bd644eb5de7161938af91, type: 3}
  m_Name: 
  m_EditorClassIdentifier: 
--- !u!1001 &1590386873748890988
PrefabInstance:
  m_ObjectHideFlags: 0
  serializedVersion: 2
  m_Modification:
    m_TransformParent: {fileID: 1400997427221277466}
    m_Modifications:
    - target: {fileID: -8679921383154817045, guid: be08eddd55ce1ff4f8f9dfb6333949fa, type: 3}
      propertyPath: m_RootOrder
      value: 0
      objectReference: {fileID: 0}
    - target: {fileID: -8679921383154817045, guid: be08eddd55ce1ff4f8f9dfb6333949fa, type: 3}
      propertyPath: m_LocalPosition.x
      value: 0
      objectReference: {fileID: 0}
    - target: {fileID: -8679921383154817045, guid: be08eddd55ce1ff4f8f9dfb6333949fa, type: 3}
      propertyPath: m_LocalPosition.y
      value: 0
      objectReference: {fileID: 0}
    - target: {fileID: -8679921383154817045, guid: be08eddd55ce1ff4f8f9dfb6333949fa, type: 3}
      propertyPath: m_LocalPosition.z
      value: 0
      objectReference: {fileID: 0}
    - target: {fileID: -8679921383154817045, guid: be08eddd55ce1ff4f8f9dfb6333949fa, type: 3}
      propertyPath: m_LocalRotation.w
      value: 1
      objectReference: {fileID: 0}
    - target: {fileID: -8679921383154817045, guid: be08eddd55ce1ff4f8f9dfb6333949fa, type: 3}
      propertyPath: m_LocalRotation.x
      value: 0
      objectReference: {fileID: 0}
    - target: {fileID: -8679921383154817045, guid: be08eddd55ce1ff4f8f9dfb6333949fa, type: 3}
      propertyPath: m_LocalRotation.y
      value: 0
      objectReference: {fileID: 0}
    - target: {fileID: -8679921383154817045, guid: be08eddd55ce1ff4f8f9dfb6333949fa, type: 3}
      propertyPath: m_LocalRotation.z
      value: 0
      objectReference: {fileID: 0}
    - target: {fileID: -8679921383154817045, guid: be08eddd55ce1ff4f8f9dfb6333949fa, type: 3}
      propertyPath: m_LocalEulerAnglesHint.x
      value: 0
      objectReference: {fileID: 0}
    - target: {fileID: -8679921383154817045, guid: be08eddd55ce1ff4f8f9dfb6333949fa, type: 3}
      propertyPath: m_LocalEulerAnglesHint.y
      value: 0
      objectReference: {fileID: 0}
    - target: {fileID: -8679921383154817045, guid: be08eddd55ce1ff4f8f9dfb6333949fa, type: 3}
      propertyPath: m_LocalEulerAnglesHint.z
      value: 0
      objectReference: {fileID: 0}
    - target: {fileID: -3372777983678939979, guid: be08eddd55ce1ff4f8f9dfb6333949fa, type: 3}
      propertyPath: m_Materials.Array.data[0]
      value: 
      objectReference: {fileID: 2100000, guid: 7991cd59829676a49995de7d93bf64e8, type: 2}
    - target: {fileID: 919132149155446097, guid: be08eddd55ce1ff4f8f9dfb6333949fa, type: 3}
      propertyPath: m_Name
      value: LaserAddon
      objectReference: {fileID: 0}
    - target: {fileID: 7482016553767934014, guid: be08eddd55ce1ff4f8f9dfb6333949fa, type: 3}
      propertyPath: m_Materials.Array.data[0]
      value: 
      objectReference: {fileID: 2100000, guid: e571d46914684d742bf16ba1b56f58e7, type: 2}
    - target: {fileID: 7976750481251560868, guid: be08eddd55ce1ff4f8f9dfb6333949fa, type: 3}
      propertyPath: m_Materials.Array.data[0]
      value: 
      objectReference: {fileID: 2100000, guid: e571d46914684d742bf16ba1b56f58e7, type: 2}
    m_RemovedComponents: []
  m_SourcePrefab: {fileID: 100100000, guid: be08eddd55ce1ff4f8f9dfb6333949fa, type: 3}
--- !u!4 &1267914005633188487 stripped
Transform:
  m_CorrespondingSourceObject: {fileID: -8679921383154817045, guid: be08eddd55ce1ff4f8f9dfb6333949fa, type: 3}
  m_PrefabInstance: {fileID: 1590386873748890988}
  m_PrefabAsset: {fileID: 0}
