%YAML 1.1
%TAG !u! tag:unity3d.com,2011:
--- !u!114 &11400000
MonoBehaviour:
  m_ObjectHideFlags: 0
  m_CorrespondingSourceObject: {fileID: 0}
  m_PrefabInstance: {fileID: 0}
  m_PrefabAsset: {fileID: 0}
  m_GameObject: {fileID: 0}
  m_Enabled: 1
  m_EditorHideFlags: 0
  m_Script: {fileID: 11500000, guid: dd2bcd0afdad6fc49a4ce3928a5121f9, type: 3}
  m_Name: Cultura y Ocio 8
  m_EditorClassIdentifier: 
  _question: "\xBFcrees que hay actividades de hombres y de mujeres?"
  _answers:
  - Todos podemos hacer las actividades que querramos
  - "S\xED, porque el hombre tiene mayor fuerza f\xEDsica"
  - No, pero aun hay limitaciones de la sociedad
