%YAML 1.1
%TAG !u! tag:unity3d.com,2011:
--- !u!114 &11400000
MonoBehaviour:
  m_ObjectHideFlags: 0
  m_CorrespondingSourceObject: {fileID: 0}
  m_PrefabInstance: {fileID: 0}
  m_PrefabAsset: {fileID: 0}
  m_GameObject: {fileID: 0}
  m_Enabled: 1
  m_EditorHideFlags: 0
  m_Script: {fileID: 11500000, guid: dd2bcd0afdad6fc49a4ce3928a5121f9, type: 3}
  m_Name: Cultura y Ocio 2
  m_EditorClassIdentifier: 
  _question: "\xBFQu\xE9 es una masculinidad positiva?"
  _answers:
  - Una masculinidad sexista y heteronormativa
  - "Una masculinidad que busca el bienestar de los dem\xE1s"
  - "Una masculinidad no sexista ni homof\xF3bica, promueve la diversificaci\xF3n
    de g\xE9nero"
