%YAML 1.1
%TAG !u! tag:unity3d.com,2011:
--- !u!114 &11400000
MonoBehaviour:
  m_ObjectHideFlags: 0
  m_CorrespondingSourceObject: {fileID: 0}
  m_PrefabInstance: {fileID: 0}
  m_PrefabAsset: {fileID: 0}
  m_GameObject: {fileID: 0}
  m_Enabled: 1
  m_EditorHideFlags: 0
  m_Script: {fileID: 11500000, guid: dd2bcd0afdad6fc49a4ce3928a5121f9, type: 3}
  m_Name: Cultura y Ocio 4
  m_EditorClassIdentifier: 
  _question: "\xBFQu\xE9 es el feminismo?"
  _answers:
  - "Movimiento ideol\xF3gico para odiar a los hombres"
  - "Movimiento sociopol\xEDtico para reconocer derechos tradicionalmente reservados
    solo para los hombres"
  - "Un movimiento pol\xEDtico que busca que las mujeres igualen a los hombres"
