%YAML 1.1
%TAG !u! tag:unity3d.com,2011:
--- !u!114 &11400000
MonoBehaviour:
  m_ObjectHideFlags: 0
  m_CorrespondingSourceObject: {fileID: 0}
  m_PrefabInstance: {fileID: 0}
  m_PrefabAsset: {fileID: 0}
  m_GameObject: {fileID: 0}
  m_Enabled: 1
  m_EditorHideFlags: 0
  m_Script: {fileID: 11500000, guid: dd2bcd0afdad6fc49a4ce3928a5121f9, type: 3}
  m_Name: Pareja 8
  m_EditorClassIdentifier: 
  _question: "\xBFLos hombres somos capaces de mostrar ternura?"
  _answers:
  - "Es d\xEDficil, nosotros somos m\xE1s fr\xEDos"
  - " Las mujeres son m\xE1s tiernas que los hombres"
  - Todos tenemos la capacidad de demostrar ternura
