%YAML 1.1
%TAG !u! tag:unity3d.com,2011:
--- !u!114 &11400000
MonoBehaviour:
  m_ObjectHideFlags: 0
  m_CorrespondingSourceObject: {fileID: 0}
  m_PrefabInstance: {fileID: 0}
  m_PrefabAsset: {fileID: 0}
  m_GameObject: {fileID: 0}
  m_Enabled: 1
  m_EditorHideFlags: 0
  m_Script: {fileID: 11500000, guid: dd2bcd0afdad6fc49a4ce3928a5121f9, type: 3}
  m_Name: Pareja 2
  m_EditorClassIdentifier: 
  _question: "\xBFTe parece adecuado el termino soldado ca\xEDdo?"
  _answers:
  - "S\xED, es gracioso"
  - No, porque el amor no es una guerra
  - No me incomoda usarlo ni que lo usen conmigo
