{
  "project_info": {
    "project_number": "674352343477",
    "firebase_url": "https://a-marte-default-rtdb.firebaseio.com",
    "project_id": "a-marte",
    "storage_bucket": "a-marte.appspot.com"
  },
  "client": [
    {
      "client_info": {
        "mobilesdk_app_id": "1:674352343477:android:ff2d48060794051fc0d1fc",
        "android_client_info": {
          "package_name": "com.Qallariy.AMarte"
        }
      },
      "oauth_client": [
        {
          "client_id": "674352343477-683teilnup804j9npp0gd0j5m2nk2t12.apps.googleusercontent.com",
          "client_type": 3
        }
      ],
      "api_key": [
        {
          "current_key": "AIzaSyAKeVjLXSwYpvGV2oA5erb7cumEdz7YVf4"
        }
      ],
      "services": {
        "appinvite_service": {
          "other_platform_oauth_client": [
            {
              "client_id": "674352343477-683teilnup804j9npp0gd0j5m2nk2t12.apps.googleusercontent.com",
              "client_type": 3
            }
          ]
        }
      }
    }
  ],
  "configuration_version": "1"
}