%YAML 1.1
%TAG !u! tag:unity3d.com,2011:
--- !u!114 &11400000
MonoBehaviour:
  m_ObjectHideFlags: 0
  m_CorrespondingSourceObject: {fileID: 0}
  m_PrefabInstance: {fileID: 0}
  m_PrefabAsset: {fileID: 0}
  m_GameObject: {fileID: 0}
  m_Enabled: 1
  m_EditorHideFlags: 0
  m_Script: {fileID: 11500000, guid: dd2bcd0afdad6fc49a4ce3928a5121f9, type: 3}
  m_Name: Crecimiento Personal 8
  m_EditorClassIdentifier: 
  _question: "\xBFC\xF3mo identifico f\xEDsicamente la emoci\xF3n de asco?"
  _answers:
  - "Nauseas, tensi\xF3n muscular, aumento de actividad gastrointestinal"
  - "Aumenta el ritmo cardiaco, el rostro se enrojece, presi\xF3n sobre las manos,
    m\xFAsculos tensionados"
  - "Aumenta el ritmo cardiaco, sensaci\xF3n de falta de aire, escalofr\xEDos"
