%YAML 1.1
%TAG !u! tag:unity3d.com,2011:
--- !u!114 &11400000
MonoBehaviour:
  m_ObjectHideFlags: 0
  m_CorrespondingSourceObject: {fileID: 0}
  m_PrefabInstance: {fileID: 0}
  m_PrefabAsset: {fileID: 0}
  m_GameObject: {fileID: 0}
  m_Enabled: 1
  m_EditorHideFlags: 0
  m_Script: {fileID: 11500000, guid: dd2bcd0afdad6fc49a4ce3928a5121f9, type: 3}
  m_Name: Crecimiento Personal 15
  m_EditorClassIdentifier: 
  _question: "\xBFLos micromachismos existen?"
  _answers:
  - "S\xED, son pr\xE1cticas cotidianas, ejercen poder de dominio masculino"
  - "No, ya que percibirlos como \"micro\" pueden minimizar las consecuencias en
    muchos \xE1mbitos de la vida de las mujeres"
  - "S\xED, pueden ser comentarios o chistes"
