%YAML 1.1
%TAG !u! tag:unity3d.com,2011:
--- !u!114 &11400000
MonoBehaviour:
  m_ObjectHideFlags: 0
  m_CorrespondingSourceObject: {fileID: 0}
  m_PrefabInstance: {fileID: 0}
  m_PrefabAsset: {fileID: 0}
  m_GameObject: {fileID: 0}
  m_Enabled: 1
  m_EditorHideFlags: 0
  m_Script: {fileID: 11500000, guid: dd2bcd0afdad6fc49a4ce3928a5121f9, type: 3}
  m_Name: Crecimiento Personal 7
  m_EditorClassIdentifier: 
  _question: "\xBFC\xF3mo identifico f\xEDsicamente la emoci\xF3n de sorpresa?"
  _answers:
  - Gestos producidos con los ojos y labios, activa nuestro organismo para entrar
    en movimiento (saltar, correr, bailar)
  - "Aumenta el ritmo cardiaco, sensaci\xF3n de falta de aire"
  - "Se dilatan nuestras pupilas, disminuye la frecuencia cardiaca y aumenta nuestra
    respiraci\xF3n"
