{
    "name": "InputManager",
    "maps": [
        {
            "name": "UI",
            "id": "b13039a4-75d1-4cb4-9797-67fd3aba38d2",
            "actions": [
                {
                    "name": "Tap",
                    "type": "Button",
                    "id": "a08f6ca1-d1dc-408c-b8f3-7248bdfd75cf",
                    "expectedControlType": "Button",
                    "processors": "",
                    "interactions": ""
                },
                {
                    "name": "Position",
                    "type": "Value",
                    "id": "16dc6175-0d93-40c9-8c74-65dd98c8e8dd",
                    "expectedControlType": "Vector2",
                    "processors": "",
                    "interactions": ""
                }
            ],
            "bindings": [
                {
                    "name": "",
                    "id": "54c5288a-9c4f-4a57-b65f-0035f2e770e8",
                    "path": "<Mouse>/leftButton",
                    "interactions": "",
                    "processors": "",
                    "groups": "",
                    "action": "Tap",
                    "isComposite": false,
                    "isPartOfComposite": false
                },
                {
                    "name": "",
                    "id": "1744b4d2-06a3-4664-bd52-cc01fd7481b6",
                    "path": "<Touchscreen>/primaryTouch/tap",
                    "interactions": "",
                    "processors": "",
                    "groups": "",
                    "action": "Tap",
                    "isComposite": false,
                    "isPartOfComposite": false
                },
                {
                    "name": "",
                    "id": "eaccea07-9566-41c0-880d-846d909657b1",
                    "path": "<Mouse>/position",
                    "interactions": "",
                    "processors": "",
                    "groups": "",
                    "action": "Position",
                    "isComposite": false,
                    "isPartOfComposite": false
                },
                {
                    "name": "",
                    "id": "e5f49bc7-19f7-4ed6-b10b-713d485a98bf",
                    "path": "<Touchscreen>/primaryTouch/position",
                    "interactions": "",
                    "processors": "",
                    "groups": "",
                    "action": "Position",
                    "isComposite": false,
                    "isPartOfComposite": false
                }
            ]
        },
        {
            "name": "Gameplay",
            "id": "f81eded5-6ccf-4e81-b19f-29dce496aa38",
            "actions": [
                {
                    "name": "Touch",
                    "type": "Button",
                    "id": "aae4d5da-b08f-4394-904e-f6b8a7eefd15",
                    "expectedControlType": "Button",
                    "processors": "",
                    "interactions": "Press(behavior=2)"
                }
            ],
            "bindings": [
                {
                    "name": "",
                    "id": "36e40cd7-0f8f-4507-8751-2428cdfad31f",
                    "path": "<Touchscreen>/primaryTouch/press",
                    "interactions": "",
                    "processors": "",
                    "groups": "",
                    "action": "Touch",
                    "isComposite": false,
                    "isPartOfComposite": false
                },
                {
                    "name": "",
                    "id": "7bfaf7f5-402b-4184-9f66-4835dcc19a01",
                    "path": "<Mouse>/leftButton",
                    "interactions": "",
                    "processors": "",
                    "groups": "",
                    "action": "Touch",
                    "isComposite": false,
                    "isPartOfComposite": false
                }
            ]
        }
    ],
    "controlSchemes": []
}