%YAML 1.1
%TAG !u! tag:unity3d.com,2011:
--- !u!1045 &1
EditorBuildSettings:
  m_ObjectHideFlags: 0
  serializedVersion: 2
  m_Scenes:
  - enabled: 1
    path: Assets/Scenes/Authentication.unity
    guid: 07614beae2ecf0841ae5143b984dc94d
  - enabled: 1
    path: Assets/Scenes/Menu.unity
    guid: 43c5e434f9558104eba1c12224bd4c8f
  - enabled: 1
    path: Assets/Scenes/Store.unity
    guid: 3860ddc801933084c843c06b508aa977
  - enabled: 1
    path: Assets/Scenes/Gameplay.unity
    guid: 2cda990e2423bbf4892e6590ba056729
  m_configObjects: {}
