%YAML 1.1
%TAG !u! tag:unity3d.com,2011:
--- !u!162 &1
EditorUserSettings:
  m_ObjectHideFlags: 0
  serializedVersion: 4
  m_ConfigSettings:
    RecentlyUsedScenePath-0:
      value: 2242470311464677080f021607265a1e5932002b21382a353e662e30e7ee312badd333faf333313b032eea3b053d181aea1e471ef8021e12
      flags: 0
    RecentlyUsedScenePath-1:
      value: 2242470311464677080f021607265a1e5932002b21382a353e662e30e7ee312badc033e7e2283e301c03fc350a393526e20f1a45e305031f08
      flags: 0
    RecentlyUsedScenePath-2:
      value: 2242470311464677080f021607265a1e5932002b21382a353e663c21e1e83d2ee7e379dde2292b353705dd350337053dfd0e1028c5451f05181ae4
      flags: 0
    RecentlyUsedScenePath-3:
      value: 2242470311464677080f021607265a1e5932002b21382a353e663c21e1e83d2ee7e379c6eb3e18091027f73d092e0d3ae1293a45e305031f08
      flags: 0
    RecentlyUsedScenePath-4:
      value: 2242470311464677080f021607265a1e5932002b21382a353e662e30e7ee312badd737fdef092f30300cea190a3a0d3ae119471ef8021e12
      flags: 0
    RecentlyUsedScenePath-5:
      value: 2242470311464677080f021607265a1e5932002b21382a353e662e30e7ee312badcb39eee81936323c0fee280d3d4f2afc031d12
      flags: 0
    RecentlyUsedScenePath-6:
      value: 22424703114646680e0b0227036c6c0419051d6439262f2434
      flags: 0
    RecentlyUsedScenePath-7:
      value: 22424703114646680e0b0227036c72151802563f22213229
      flags: 0
    RecentlyUsedScenePath-8:
      value: 22424703114646680e0b0227036c78111b1208262d3168252320092a
      flags: 0
    RecentlyUsedScenePath-9:
      value: 22424703114646680e0b0227036c7e05021f1d24382125313920123dacf53a31f6fe
      flags: 0
    UnityEditor.ShaderGraph.Blackboard:
      value: 18135939215a0a5004000b0e15254b524c030a3f2964643d120d1230e9e93a3fd6e826abbd2e2d293c4ead313b08042de6030a0afa240c0d020be94c4baf5e435d8715fa32c70d15d11612dacc11fee5d3c5d1fe9ab1b7968e93e2ffcbc3e7e2f0b3ffe0e8b0be9af8faacffff8e85dd8390e492958899daa7
      flags: 0
    UnityEditor.ShaderGraph.FloatingWindowsLayout2:
      value: 181344140043005e1a220d3b1f364b524c0c5a27130c293326201334cee5322ca0bd30e8eb293a707b0fd0180b3d0a36fc0d3d04e649500d1002ee0b5dbd1d2c27c00ad113cb1e10e41f1addc80993b9859884a69ae6d8f0d1cda9e8fbfefaf9f9dea3fdb9ade882f0ffb0e1e380cafbf2c3adc18e9cd285a2908b82ef829c8395949c9483d6898a97ddbd90bf
      flags: 0
    UnityEditor.ShaderGraph.InspectorWindow:
      value: 18135939215a0a5004000b0e15254b524c1119263f2d6a722016393ce1eb3d36e5d339f9a5602b2e2c07a37e0901373ae01e0008f707250d171df81a53a5485d41895ac825e0100ec20313c0d91cddccd3d0c7efcca9bd80908fecb0f9cfddf1eff4e7a1b1eae482f0fcaee1e1928b86d888ed969b938797a7cf
      flags: 0
    vcSharedLogLevel:
      value: 0d5e400f0650
      flags: 0
  m_VCAutomaticAdd: 1
  m_VCDebugCom: 0
  m_VCDebugCmd: 0
  m_VCDebugOut: 0
  m_SemanticMergeMode: 2
  m_VCShowFailedCheckout: 1
  m_VCOverwriteFailedCheckoutAssets: 1
  m_VCProjectOverlayIcons: 1
  m_VCHierarchyOverlayIcons: 1
  m_VCOtherOverlayIcons: 1
  m_VCAllowAsyncUpdate: 1
